{
    "Numeros":{
     "1": {
      "Dia": "LUNES"
        },
     "2": {
      "Dia": "LUNES"
        },
    "3": {
      "Dia": "MARTES"
        },
     "4": {
      "Dia": "MARTES"
        }, 
      "5": {
      "Dia": "MIERCOLES"
        },
     "6": {
      "Dia": "MIERCOLES"
        },
     "7": {
      "Dia": "JUEVES"
        },
     "8": {
      "Dia": "JUEVES"
        },
     "9": {
      "Dia": "VIERNES"
        },
     "0": {
      "Dia": "VIERNES"
        }
    },
    
    "Dias":{
      "Lunes":{
        "Numeros" :[1,2]
      },
       "Martes":{
        "Numeros" :[3,4]
      },
       "Miercoles":{
        "Numeros" :[5,6]
      },
       "Jueves":{
        "Numeros" :[7,8]
      },
       "Viernes":{
        "Numeros" :[9,0]
      }
    },
    "Horario":{
      "1":[
        "7:00",
        "9:30"
      ],
      "5":[
        "16:00",
        "19:30"
      ]
      }
}
   
  